AAGI Education – Analysis of a single field trial
…
\mathbf{A}^{-1}

cropscan::met_pedigree

# A tibble: 9,333 × 4
   Me    Mum   Dad    fgen
   <chr> <chr> <chr> <dbl>
 1 G0004 G9334 G9870     4
 2 G0008 G9335 G9871     4
 3 G0011 G9336 G9872     4
 4 G0323 G9337 G9873     4
 5 G0010 G9338 G9874     4
 6 G0324 G9339 G0008     4
 7 G0325 G9340 G0011    10
 8 G0009 G9341 G9341    10
 9 G0006 G9341 G9341    10
10 G0326 G9342 G0323     0
# ℹ 9,323 more rows
…
Estimated breeding values

EBV is a measure of the breeding potential of an individual for a specific trait

You can obtain EBV as the E-BLUP (empirical best linear unbiased predictor) of \boldsymbol{u}_a

ebv_nrm <- tidy(fit_nrm, "random") |> 
  filter(str_detect(term, "^vm[(]gen, Ainv[)]")) |> 
  mutate(gen = str_remove(term, "^vm[(]gen, Ainv[)]_")) |> 
  filter(gen %in% cropscan::trial_pheno$gen) |> 
  select(-term)

ebv_nrm

# A tibble: 191 × 3
   estimate std.error gen  
      <dbl>     <dbl> <chr>
 1  -0.122     0.0909 G0004
 2  -0.192     0.0783 G0008
 3  -0.0628    0.0968 G0011
 4   0.0494    0.0691 G0323
 5   0.0211    0.0802 G0010
 6  -0.263     0.0717 G0324
 7  -0.0854    0.0480 G0009
 8   0.0118    0.0603 G0006
 9  -0.0124    0.0759 G0013
10   0.100     0.0620 G0003
# ℹ 181 more rows
…
DNA markers

cropscan::trial_marker

# A tibble: 191 × 17,317
   gen   M00001 M00002 M00003 M00004 M00005 M00006 M00007 M00008
   <chr>  <dbl>  <dbl>  <dbl>  <dbl>  <dbl>  <dbl>  <dbl>  <dbl>
 1 G0002      0      0      0      0      0      0      0      0
 2 G0003      0      0      0      0      0      0      0      0
 3 G0004      0      0      0      0      0      0      0      0
 4 G0005      0      0      0      0      0      0      0      0
 5 G0006      0      0      0      0      0      0      0      0
 6 G0007      0      0      0      0      0      0      0      0
 7 G0008      0      0      0      0      0      0      0      0
 8 G0009      0      0      0      0      0      0      0      0
 9 G0010      0      0      0      0      0      0      0      0
10 G0011      0      0      0      0      0      0      0      0
# ℹ 181 more rows
# ℹ 17,308 more variables: M00009 <dbl>, M00010 <dbl>, M00011 <dbl>,
#   M00012 <dbl>, M00013 <dbl>, M00014 <dbl>, M00015 <dbl>,
#   M00016 <dbl>, M00017 <dbl>, M00018 <dbl>, M00019 <dbl>,
#   M00020 <dbl>, M00021 <dbl>, M00022 <dbl>, M00023 <dbl>,
#   M00024 <dbl>, M00025 <dbl>, M00026 <dbl>, M00027 <dbl>,
#   M00028 <dbl>, M00029 <dbl>, M00030 <dbl>, M00031 <dbl>, …
…
