AAGI Education – Linear mixed models
…
fits <- asreml(yield ~ 1,
               random =~ Variety,
               residual =~ units,
               data = shf)

tidy(fits, "fixed")

# A tibble: 1 × 3
  term        estimate std.error
  <chr>          <dbl>     <dbl>
1 (Intercept)    1470.      26.6

tidy(fits, "random")

# A tibble: 25 × 3
   term       estimate std.error
   <chr>         <dbl>     <dbl>
 1 Variety_1   -156.        67.3
 2 Variety_2     20.8       67.3
 3 Variety_3     -7.78      67.3
 4 Variety_4    -26.3       67.3
 5 Variety_5    -18.2       67.3
 6 Variety_6      4.43      67.3
 7 Variety_7    -42.2       67.3
 8 Variety_8     45.6       67.3
 9 Variety_9    -92.2       67.3
10 Variety_10  -161.        67.3
# ℹ 15 more rows
…
